^C:\USERS\RIAD\DOCUMENTS\VISUAL STUDIO 2015\PROJECTS\C++PBR\C++PBR\DEBUG\CAMERA.OBJ|C:\USERS\RIAD\DOCUMENTS\VISUAL STUDIO 2015\PROJECTS\C++PBR\C++PBR\DEBUG\GRAPHICSUTILS.OBJ|C:\USERS\RIAD\DOCUMENTS\VISUAL STUDIO 2015\PROJECTS\C++PBR\C++PBR\DEBUG\HDRSKYBOX.OBJ|C:\USERS\RIAD\DOCUMENTS\VISUAL STUDIO 2015\PROJECTS\C++PBR\C++PBR\DEBUG\INPUT.OBJ|C:\USERS\RIAD\DOCUMENTS\VISUAL STUDIO 2015\PROJECTS\C++PBR\C++PBR\DEBUG\LIGHT.OBJ|C:\USERS\RIAD\DOCUMENTS\VISUAL STUDIO 2015\PROJECTS\C++PBR\C++PBR\DEBUG\MAIN.OBJ|C:\USERS\RIAD\DOCUMENTS\VISUAL STUDIO 2015\PROJECTS\C++PBR\C++PBR\DEBUG\MATERIAL.OBJ|C:\USERS\RIAD\DOCUMENTS\VISUAL STUDIO 2015\PROJECTS\C++PBR\C++PBR\DEBUG\MESH.OBJ|C:\USERS\RIAD\DOCUMENTS\VISUAL STUDIO 2015\PROJECTS\C++PBR\C++PBR\DEBUG\MODEL.OBJ|C:\USERS\RIAD\DOCUMENTS\VISUAL STUDIO 2015\PROJECTS\C++PBR\C++PBR\DEBUG\RENDERER.OBJ|C:\USERS\RIAD\DOCUMENTS\VISUAL STUDIO 2015\PROJECTS\C++PBR\C++PBR\DEBUG\RENDERSHADER.OBJ|C:\USERS\RIAD\DOCUMENTS\VISUAL STUDIO 2015\PROJECTS\C++PBR\C++PBR\DEBUG\SCENE.OBJ|C:\USERS\RIAD\DOCUMENTS\VISUAL STUDIO 2015\PROJECTS\C++PBR\C++PBR\DEBUG\SHADER.OBJ|C:\USERS\RIAD\DOCUMENTS\VISUAL STUDIO 2015\PROJECTS\C++PBR\C++PBR\DEBUG\STB_IMAGE.OBJ|C:\USERS\RIAD\DOCUMENTS\VISUAL STUDIO 2015\PROJECTS\C++PBR\C++PBR\DEBUG\TEXTURE.OBJ|C:\USERS\RIAD\DOCUMENTS\VISUAL STUDIO 2015\PROJECTS\C++PBR\C++PBR\DEBUG\TIMER.OBJ|C:\USERS\RIAD\DOCUMENTS\VISUAL STUDIO 2015\PROJECTS\C++PBR\C++PBR\DEBUG\WINDOW.OBJ
C:\WINDOWS\GLOBALIZATION\SORTING\SORTDEFAULT.NLS
C:\USERS\RIAD\DOCUMENTS\VISUAL STUDIO 2015\PROJECTS\C++PBR\DEPENDENCIES\GLFW\LIB\GLFW3.LIB
C:\USERS\RIAD\DOCUMENTS\VISUAL STUDIO 2015\PROJECTS\C++PBR\DEPENDENCIES\GLEW\LIB\GLEW32S.LIB
C:\PROGRAM FILES (X86)\WINDOWS KITS\8.1\LIB\WINV6.3\UM\X86\OPENGL32.LIB
C:\USERS\RIAD\DOCUMENTS\VISUAL STUDIO 2015\PROJECTS\C++PBR\DEPENDENCIES\ASSIMP\LIB\ASSIMPD.LIB
C:\PROGRAM FILES (X86)\MICROSOFT VISUAL STUDIO 14.0\VC\LIB\LEGACY_STDIO_DEFINITIONS.LIB
C:\PROGRAM FILES (X86)\WINDOWS KITS\8.1\LIB\WINV6.3\UM\X86\KERNEL32.LIB
C:\PROGRAM FILES (X86)\WINDOWS KITS\8.1\LIB\WINV6.3\UM\X86\USER32.LIB
C:\PROGRAM FILES (X86)\WINDOWS KITS\8.1\LIB\WINV6.3\UM\X86\GDI32.LIB
C:\PROGRAM FILES (X86)\WINDOWS KITS\8.1\LIB\WINV6.3\UM\X86\WINSPOOL.LIB
C:\PROGRAM FILES (X86)\WINDOWS KITS\8.1\LIB\WINV6.3\UM\X86\COMDLG32.LIB
C:\PROGRAM FILES (X86)\WINDOWS KITS\8.1\LIB\WINV6.3\UM\X86\ADVAPI32.LIB
C:\PROGRAM FILES (X86)\WINDOWS KITS\8.1\LIB\WINV6.3\UM\X86\SHELL32.LIB
C:\PROGRAM FILES (X86)\WINDOWS KITS\8.1\LIB\WINV6.3\UM\X86\OLE32.LIB
C:\PROGRAM FILES (X86)\WINDOWS KITS\8.1\LIB\WINV6.3\UM\X86\OLEAUT32.LIB
C:\PROGRAM FILES (X86)\WINDOWS KITS\8.1\LIB\WINV6.3\UM\X86\UUID.LIB
C:\PROGRAM FILES (X86)\WINDOWS KITS\8.1\LIB\WINV6.3\UM\X86\ODBC32.LIB
C:\PROGRAM FILES (X86)\WINDOWS KITS\8.1\LIB\WINV6.3\UM\X86\ODBCCP32.LIB
C:\USERS\RIAD\DOCUMENTS\VISUAL STUDIO 2015\PROJECTS\C++PBR\C++PBR\DEBUG\GRAPHICSUTILS.OBJ
C:\USERS\RIAD\DOCUMENTS\VISUAL STUDIO 2015\PROJECTS\C++PBR\C++PBR\DEBUG\HDRSKYBOX.OBJ
C:\USERS\RIAD\DOCUMENTS\VISUAL STUDIO 2015\PROJECTS\C++PBR\C++PBR\DEBUG\INPUT.OBJ
C:\USERS\RIAD\DOCUMENTS\VISUAL STUDIO 2015\PROJECTS\C++PBR\C++PBR\DEBUG\LIGHT.OBJ
C:\USERS\RIAD\DOCUMENTS\VISUAL STUDIO 2015\PROJECTS\C++PBR\C++PBR\DEBUG\MAIN.OBJ
C:\USERS\RIAD\DOCUMENTS\VISUAL STUDIO 2015\PROJECTS\C++PBR\C++PBR\DEBUG\MATERIAL.OBJ
C:\USERS\RIAD\DOCUMENTS\VISUAL STUDIO 2015\PROJECTS\C++PBR\C++PBR\DEBUG\MESH.OBJ
C:\USERS\RIAD\DOCUMENTS\VISUAL STUDIO 2015\PROJECTS\C++PBR\C++PBR\DEBUG\MODEL.OBJ
C:\USERS\RIAD\DOCUMENTS\VISUAL STUDIO 2015\PROJECTS\C++PBR\C++PBR\DEBUG\RENDERER.OBJ
C:\USERS\RIAD\DOCUMENTS\VISUAL STUDIO 2015\PROJECTS\C++PBR\C++PBR\DEBUG\RENDERSHADER.OBJ
C:\USERS\RIAD\DOCUMENTS\VISUAL STUDIO 2015\PROJECTS\C++PBR\C++PBR\DEBUG\SCENE.OBJ
C:\USERS\RIAD\DOCUMENTS\VISUAL STUDIO 2015\PROJECTS\C++PBR\C++PBR\DEBUG\CAMERA.OBJ
C:\USERS\RIAD\DOCUMENTS\VISUAL STUDIO 2015\PROJECTS\C++PBR\C++PBR\DEBUG\SHADER.OBJ
C:\USERS\RIAD\DOCUMENTS\VISUAL STUDIO 2015\PROJECTS\C++PBR\C++PBR\DEBUG\STB_IMAGE.OBJ
C:\USERS\RIAD\DOCUMENTS\VISUAL STUDIO 2015\PROJECTS\C++PBR\C++PBR\DEBUG\TEXTURE.OBJ
C:\USERS\RIAD\DOCUMENTS\VISUAL STUDIO 2015\PROJECTS\C++PBR\C++PBR\DEBUG\TIMER.OBJ
C:\USERS\RIAD\DOCUMENTS\VISUAL STUDIO 2015\PROJECTS\C++PBR\C++PBR\DEBUG\WINDOW.OBJ
C:\PROGRAM FILES (X86)\MICROSOFT VISUAL STUDIO 14.0\VC\LIB\MSVCRTD.LIB
C:\PROGRAM FILES (X86)\MICROSOFT VISUAL STUDIO 14.0\VC\LIB\OLDNAMES.LIB
C:\PROGRAM FILES (X86)\MICROSOFT VISUAL STUDIO 14.0\VC\LIB\MSVCPRTD.LIB
C:\PROGRAM FILES (X86)\MICROSOFT VISUAL STUDIO 14.0\VC\LIB\MSVCRT.LIB
C:\PROGRAM FILES (X86)\MICROSOFT VISUAL STUDIO 14.0\VC\LIB\LIBCMT.LIB
C:\PROGRAM FILES (X86)\MICROSOFT VISUAL STUDIO 14.0\VC\LIB\VCRUNTIMED.LIB
C:\PROGRAM FILES (X86)\WINDOWS KITS\10\LIB\10.0.10240.0\UCRT\X86\UCRTD.LIB
C:\PROGRAM FILES (X86)\MICROSOFT VISUAL STUDIO 14.0\VC\BIN\1033\LINKUI.DLL
C:\PROGRAM FILES (X86)\WINDOWS KITS\8.1\BIN\X86\RC.EXE
C:\PROGRAM FILES (X86)\MICROSOFT VISUAL STUDIO 14.0\VC\BIN\CVTRES.EXE
C:\WINDOWS\SYSTEM32\TZRES.DLL
